{
  "dev": "postgres://GUI:test123@localhost/WFE",

  "test": {
    "driver": "sqlite3",
    "filename": ":memory:"
  },

  "prod": {
    "driver": "pg",
    "user": "GUI",
    "password": "test123",
    "database": "WFE"
  }
}